DSfinalproject
…
6. Supervised Learning: Predict Wine Type (Red vs White)

Can chemical variables alone distinguish red wines from white
wines?

To avoid leakage, quality variables were removed, leaving only
chemical measurements.

#drop predictive/leakage data

winetype_train <- wine %>%
  select(-quality, -quality_100, -quality_range)
winetype_train

## # A tibble: 6,497 × 12
##    fixed_acidity volatile_acidity citric_acid residual_sugar chlorides
##            <dbl>            <dbl>       <dbl>          <dbl>     <dbl>
##  1           7.4             0.7         0               1.9     0.076
##  2           7.8             0.88        0               2.6     0.098
##  3           7.8             0.76        0.04            2.3     0.092
##  4          11.2             0.28        0.56            1.9     0.075
##  5           7.4             0.7         0               1.9     0.076
##  6           7.4             0.66        0               1.8     0.075
##  7           7.9             0.6         0.06            1.6     0.069
##  8           7.3             0.65        0               1.2     0.065
##  9           7.8             0.58        0.02            2       0.073
## 10           7.5             0.5         0.36            6.1     0.071
## # ℹ 6,487 more rows
## # ℹ 7 more variables: free_sulfur_dioxide <dbl>, total_sulfur_dioxide <dbl>,
## #   density <dbl>, pH <dbl>, sulphates <dbl>, alcohol <dbl>, wine_type <fct>
…
